[
    {
      "type": "farmos",
      "time": 1685398464031,
      "entity": {
        "type": "quantity--standard",
        "id": "71a90903-8777-45fa-8900-ff33392b6636",
        "attributes": {
          "value": {
            "decimal": 100
          },
          "label": "area"
        },
        "relationships": {
          "units": {
            "data": [
              {
                "type": "taxonomy_term--unit",
                "name": "%"
              }
            ]
          }
        }
      }
    },
    {
      "type": "farmos",
      "time": 1685398464031,
      "entity": {
        "type": "quantity--material",
        "id": "1c66d993-6645-4a69-a744-7d255e093cff",
        "attributes": {
          "label": "quantity"
        },
        "relationships": {
          "material_type": {
            "data": [
              {
                "type": "taxonomy_term--material_type",
                "name": "insecticide"
              }
            ]
          }
        }
      }
    },
    {
      "type": "farmos",
      "farmosType": "log",
      "time": 1685398464031,
      "entity": {
        "type": "log--input",
        "attributes": {
          "name": "insecticide",
          "status": "done",
          "notes": {
            "value": "",
            "format": "default"
          },
          "timestamp": 1685505600
        },
        "relationships": {
          "asset": {
            "data": [
              {
                "type": "asset--plant"
              }
            ]
          },
          "category": {
            "data": [
              {
                "type": "taxonomy_term--log_category",
                "name": "pest_disease_control"
              }
            ]
          },
          "quantity": {
            "data": [
              {
                "type": "quantity--standard",
                "id": "71a90903-8777-45fa-8900-ff33392b6636"
              },
              {
                "type": "quantity--material",
                "id": "1c66d993-6645-4a69-a744-7d255e093cff"
              }
            ]
          }
        }
      }
    }
  ]