[
    {
      "type": "farmos",
      "time": 1685991529440,
      "entity": {
        "type": "quantity--standard",
        "id": "5304b22a-0b7f-4504-bc26-d5d6b40bdc30",
        "attributes": {
          "value": {
            "decimal": 100
          },
          "label": "area"
        },
        "relationships": {
          "units": {
            "data": [
              {
                "type": "taxonomy_term--unit",
                "name": "%"
              }
            ]
          }
        }
      }
    },
    {
      "type": "farmos",
      "time": 1685991529440,
      "entity": {
        "type": "quantity--material",
        "id": "34fe708b-e395-4f72-9ecc-942af7aed37b",
        "attributes": {
          "value": {
            "decimal": 1
          },
          "label": "quantity"
        },
        "relationships": {
          "units": {
            "data": [
              {
                "type": "taxonomy_term--unit",
                "name": "cubic_ft"
              }
            ]
          },
          "material_type": {
            "data": [
              {
                "type": "taxonomy_term--material_type",
                "name": "alfalfa"
              }
            ]
          }
        }
      }
    },
    {
      "type": "farmos",
      "time": 1685991529440,
      "entity": {
        "type": "quantity--standard",
        "id": "81747991-30b6-4c40-9c5b-34df5bf07b3d",
        "attributes": {
          "value": {
            "decimal": 100
          },
          "label": "n"
        },
        "relationships": {
          "units": {
            "data": [
              {
                "type": "taxonomy_term--unit",
                "name": "%"
              }
            ]
          }
        }
      }
    },
    {
      "type": "farmos",
      "time": 1685991529440,
      "entity": {
        "type": "quantity--standard",
        "id": "4bf2c7a5-5fdb-4099-aa57-52a780f7d0cc",
        "attributes": {
          "value": {
            "decimal": 100
          },
          "label": "p"
        },
        "relationships": {
          "units": {
            "data": [
              {
                "type": "taxonomy_term--unit",
                "name": "%"
              }
            ]
          }
        }
      }
    },
    {
      "type": "farmos",
      "time": 1685991529440,
      "entity": {
        "type": "quantity--standard",
        "id": "62fccbba-463e-4b62-a6f6-db722300fd2d",
        "attributes": {
          "value": {
            "decimal": 100
          },
          "label": "k"
        },
        "relationships": {
          "units": {
            "data": [
              {
                "type": "taxonomy_term--unit",
                "name": "%"
              }
            ]
          }
        }
      }
    },
    {
      "type": "farmos",
      "time": 1685991529440,
      "entity": {
        "type": "quantity--standard",
        "id": "995dd943-3eb4-4428-a311-a4e2285a0e34",
        "attributes": {
          "label": "ca"
        },
        "relationships": {}
      }
    },
    {
      "type": "farmos",
      "farmosType": "log",
      "time": 1685991529440,
      "entity": {
        "type": "log--input",
        "attributes": {
          "name": "fertilizer alfalfa 1 cubic ft",
          "status": "done",
          "notes": {
            "value": "blah",
            "format": "default"
          },
          "method": "broadcast surface",
          "source": "365 organic",
          "timestamp": 1685937600
        },
        "relationships": {
          "asset": {
            "data": [
              {
                "type": "asset--plant"
              }
            ]
          },
          "category": {
            "data": [
              {
                "type": "taxonomy_term--log_category",
                "name": "amendment"
              }
            ]
          },
          "quantity": {
            "data": [
              {
                "type": "quantity--standard",
                "id": "5304b22a-0b7f-4504-bc26-d5d6b40bdc30"
              },
              {
                "type": "quantity--material",
                "id": "34fe708b-e395-4f72-9ecc-942af7aed37b"
              },
              {
                "type": "quantity--standard",
                "id": "81747991-30b6-4c40-9c5b-34df5bf07b3d"
              },
              {
                "type": "quantity--standard",
                "id": "4bf2c7a5-5fdb-4099-aa57-52a780f7d0cc"
              },
              {
                "type": "quantity--standard",
                "id": "62fccbba-463e-4b62-a6f6-db722300fd2d"
              },
              {
                "type": "quantity--standard",
                "id": "995dd943-3eb4-4428-a311-a4e2285a0e34"
              }
            ]
          }
        }
      }
    }
  ]