[
    {
      "type": "farmos",
      "url": "oursci.farmos.net",
      "time": 1685992448487,
      "entity": {
        "type": "quantity--standard",
        "id": "03de388f-991e-400e-9ba4-6b0a23cfda84",
        "attributes": {
          "relationships": {
            "units": {
              "data": [
                {
                  "type": "taxonomy_term--unit",
                  "name": "%"
                }
              ]
            }
          },
          "value": {
            "decimal": 100
          },
          "label": "area"
        }
      }
    },
    {
      "type": "farmos",
      "farmosType": "log",
      "url": "oursci.farmos.net",
      "time": 1685992448487,
      "entity": {
        "type": "log--activity",
        "attributes": {
          "name": "start solarization or tarping",
          "status": "done",
          "notes": {
            "value": "",
            "format": "default"
          },
          "is_termination": true,
          "timestamp": 1685937600
        },
        "relationships": {
          "asset": {
            "data": [
              {
                "type": "asset--plant",
                "id": "bd2be0e3-c43e-4071-ad07-9130ed2baa83"
              }
            ]
          },
          "category": {
            "data": [
              {
                "type": "taxonomy_term--log_category",
                "name": "weed_control"
              },
              {
                "type": "taxonomy_term--log_category",
                "name": "termination"
              }
            ]
          },
          "quantity": {
            "data": [
              {
                "type": "quantity--standard",
                "id": "03de388f-991e-400e-9ba4-6b0a23cfda84"
              }
            ]
          }
        }
      }
    },
    {
      "type": "farmos",
      "url": "oursci.farmos.net",
      "time": 1685992448487,
      "entity": {
        "type": "quantity--standard",
        "id": "99e68e39-5689-4a09-963f-4bff8a975e04",
        "attributes": {
          "relationships": {
            "units": {
              "data": [
                {
                  "type": "taxonomy_term--unit",
                  "name": "%"
                }
              ]
            }
          },
          "value": {
            "decimal": 100
          },
          "label": "area"
        }
      }
    },
    {
      "type": "farmos",
      "farmosType": "log",
      "url": "oursci.farmos.net",
      "time": 1685992448487,
      "entity": {
        "type": "log--activity",
        "attributes": {
          "name": "end solarization or tarping",
          "status": "done",
          "notes": {
            "value": "",
            "format": "default"
          },
          "is_termination": true,
          "timestamp": 1687320000
        },
        "relationships": {
          "asset": {
            "data": [
              {
                "type": "asset--plant",
                "id": "bd2be0e3-c43e-4071-ad07-9130ed2baa83"
              }
            ]
          },
          "category": {
            "data": [
              {
                "type": "taxonomy_term--log_category",
                "name": "weed_control"
              },
              {
                "type": "taxonomy_term--log_category",
                "name": "termination"
              }
            ]
          },
          "quantity": {
            "data": [
              {
                "type": "quantity--standard",
                "id": "99e68e39-5689-4a09-963f-4bff8a975e04"
              }
            ]
          }
        }
      }
    }
  ]