[
    {
      "type": "farmos",
      "time": 1689688423116,
      "entity": {
        "type": "quantity--standard",
        "id": "e099c726-f511-4bbd-a937-247a402f9e10",
        "attributes": {
          "relationships": {
            "units": {
              "data": [
                {
                  "type": "taxonomy_term--unit",
                  "name": "%"
                }
              ]
            }
          },
          "value": {
            "decimal": 100
          },
          "label": "area"
        }
      }
    },
    {
      "type": "farmos",
      "farmosType": "log",
      "time": 1689688423116,
      "entity": {
        "type": "log--activity",
        "attributes": {
          "timestamp": "1689652800",
          "name": "tillage shovel",
          "status": "done",
          "notes": {
            "value": "",
            "format": "default"
          }
        },
        "relationships": {
          "asset": {
            "data": [
              {
                "type": "asset--plant"
              }
            ]
          },
          "category": {
            "data": [
              {
                "type": "taxonomy_term--log_category",
                "name": "tillage"
              },
              {
                "type": "taxonomy_term--log_category",
                "name": "seeding"
              }
            ]
          },
          "equipment": {
            "data": [
              {
                "type": "asset--equipment",
                "name": "shovel"
              }
            ]
          },
          "quantity": {
            "data": [
              {
                "type": "quantity--standard",
                "id": "e099c726-f511-4bbd-a937-247a402f9e10"
              }
            ]
          }
        }
      }
    }
  ]