[
    {
      "type": "farmos",
      "url": "oursci.farmos.net",
      "time": 1685991724724,
      "entity": {
        "type": "asset--plant",
        "id": "20b5cc46-db44-414d-985c-42b7ef2cd5c1",
        "attributes": {
          "name": "23-06-05 , alfalfa",
          "status": "active",
          "geometry": null,
          "notes": {
            "value": "",
            "format": "default"
          }
        },
        "relationships": {
          "plant_type": {
            "data": [
              {
                "type": "taxonomy_term--plant_type",
                "name": "alfalfa"
              }
            ]
          },
          "season": {
            "data": [
              {
                "type": "taxonomy_term--season",
                "name": "2023"
              }
            ]
          }
        }
      }
    },
    {
      "type": "farmos",
      "url": "oursci.farmos.net",
      "time": 1685991724724,
      "entity": {
        "type": "log--seeding",
        "attributes": {
          "timestamp": "1685937600",
          "name": "seeding , alfalfa",
          "status": "done",
          "is_movement": true,
          "notes": {
            "value": "",
            "format": "default"
          }
        },
        "relationships": {
          "asset": {
            "data": [
              {
                "type": "asset--plant",
                "id": "20b5cc46-db44-414d-985c-42b7ef2cd5c1"
              }
            ]
          },
          "category": {
            "data": [
              {
                "type": "taxonomy_term--log_category",
                "name": "seeding"
              }
            ]
          },
          "location": {
            "data": [
              {
                "type": "asset--land",
                "id": "5a169bc0-06a5-48a8-8f50-bbc6e70eebc3"
              }
            ]
          }
        }
      }
    }
  ]